ISDS Textbook Exercise Solutions
…
# A tibble: 1 x 4
  player      pts_tm pts_opp spread
  <chr>        <dbl>   <dbl>  <dbl>
1 Kobe Bryant    112      57     55

# Alternate code
nba_spread <- nba %>%
  group_by(player) %>%
  mutate(spread = pts_tm - pts_opp ) %>% 
  select(player, pts_tm, pts_opp, spread)

nba_spread %>% arrange(desc(spread))

# A tibble: 4,747 x 4
# Groups:   player [3]
   player         pts_tm pts_opp spread
   <chr>           <dbl>   <dbl>  <dbl>
 1 Kobe Bryant       112      57     55
 2 Michael Jordan    129      82     47
 3 Kobe Bryant       113      67     46
 4 Kobe Bryant       113      67     46
 5 Michael Jordan    114      69     45
 6 Michael Jordan    140      96     44
 7 LeBron James      130      86     44
 8 Michael Jordan    123      81     42
 9 Michael Jordan    111      69     42
10 Michael Jordan     96      54     42
# ... with 4,737 more rows
…
?@exr-ch03-app4

covid_join <- covid_states %>%
 group_by(location_key, state) %>%
 summarize(total_new_confirmed=sum(new_confirmed, na.rm=TRUE),
           total_new_deceased=sum(new_deceased, na.rm=TRUE),
           total_new_recovered=sum(new_recovered, na.rm=TRUE),
           total_new_tested=sum(new_tested, na.rm=TRUE))

covid_joined <- covid_join %>%
  inner_join(covid_dem, by= "location_key")

covid_joined

# A tibble: 59 x 18
# Groups:   location_key [59]
   locat~1 state total~2 total~3 total~4 total~5 popul~6 popul~7 popul~8 popul~9
   <chr>   <chr>   <dbl>   <dbl>   <dbl>   <dbl>   <dbl>   <dbl>   <dbl>   <dbl>
 1 US_AK   Alas~  2.80e5    1316    7136  4.11e6  7.33e5  4.25e5  3.92e5  115198
 2 US_AL   Alab~  1.47e6   20047  287739  2.32e6  5.02e6  2.51e6  2.68e6  621981
 3 US_AR   Arka~  9.24e5   11861  315506  2.74e6  3.01e6  1.59e6  1.65e6  411655
 4 US_AS   Amer~  8.04e3      33       0  2.14e3  4.97e4 NA      NA           NA
 5 US_AZ   Ariz~  2.24e6   30982       0  7.91e6  7.15e6  4.03e6  4.09e6 1080975
 6 US_CA   Cali~  1.02e7   93827       0  1.82e8  3.95e7  2.05e7  2.09e7 5297960
 7 US_CA_~ Cali~  2.21e5       0       0  4.40e6  8.74e5  4.22e5  4.14e5   61427
 8 US_CO   Colo~  1.63e6   13235       0  6.42e6  5.77e6  2.98e6  2.98e6  782811
 9 US_CT   Conn~  8.69e5   11180    5454  6.52e6  3.61e6  1.82e6  1.93e6  416756
10 US_DC   Dist~  1.37e5    1377   34968  1.26e6  6.90e5  2.97e5  3.35e5   58373
# ... with 49 more rows, 8 more variables: population_age_10_19 <dbl>,
#   population_age_20_29 <dbl>, population_age_30_39 <dbl>,
#   population_age_40_49 <dbl>, population_age_50_59 <dbl>,
#   population_age_60_69 <dbl>, population_age_70_79 <dbl>,
#   population_age_80_and_older <dbl>, and abbreviated variable names
#   1: location_key, 2: total_new_confirmed, 3: total_new_deceased,
#   4: total_new_recovered, 5: total_new_tested, 6: population, ...
…
