Data Visualization I
…
There is a clear positive linear association between arr_delay and dep_delay for these flights. We also see that a significant portion (maybe majority) arrive early and depart on-time/early.

Task 2

Miles per Gallon

Let’s explore the mpg dataset which is loaded with the ggplot2 package. You can learn more about the mpg dataset by running ?mpg in the console.

You can load the mpg dataset into your Environment pane by typing data(mpg) in the Console (not necessary but some students prefer to see their dataset there).

# print the data
mpg

# A tibble: 234 × 11
   manufacturer model      displ  year   cyl trans drv     cty   hwy fl    class
   <chr>        <chr>      <dbl> <int> <int> <chr> <chr> <int> <int> <chr> <chr>
 1 audi         a4           1.8  1999     4 auto… f        18    29 p     comp…
 2 audi         a4           1.8  1999     4 manu… f        21    29 p     comp…
 3 audi         a4           2    2008     4 manu… f        20    31 p     comp…
 4 audi         a4           2    2008     4 auto… f        21    30 p     comp…
 5 audi         a4           2.8  1999     6 auto… f        16    26 p     comp…
 6 audi         a4           2.8  1999     6 manu… f        18    26 p     comp…
 7 audi         a4           3.1  2008     6 auto… f        18    27 p     comp…
 8 audi         a4 quattro   1.8  1999     4 manu… 4        18    26 p     comp…
 9 audi         a4 quattro   1.8  1999     4 auto… 4        16    25 p     comp…
10 audi         a4 quattro   2    2008     4 manu… 4        20    28 p     comp…
# … with 224 more rows
…
Task 3

Blue Jays

Let’s explore the blue_jays dataset which should be in your data/ subdirectory. This dataset contains measurements on 123 blue jays. The code below loads the data from your data subdirectory, stores it in a more useful format, and then finally prints it for us to inspect.

# Load data from file
load("data/blue_jays.rda") 
# Store in a more useful format
blue_jays <- blue_jays %>% 
  as_tibble()
# Print data
blue_jays

# A tibble: 123 × 9
   BirdID     KnownSex BillDepth BillWidth BillLength  Head  Mass Skull   Sex
   <fct>      <fct>        <dbl>     <dbl>      <dbl> <dbl> <dbl> <dbl> <int>
 1 0000-00000 M             8.26      9.21       25.9  56.6  73.3  30.7     1
 2 1142-05901 M             8.54      8.76       25.0  56.4  75.1  31.4     1
 3 1142-05905 M             8.39      8.78       26.1  57.3  70.2  31.2     1
 4 1142-05907 F             7.78      9.3        23.5  53.8  65.5  30.3     0
 5 1142-05909 M             8.71      9.84       25.5  57.3  74.9  31.8     1
 6 1142-05911 F             7.28      9.3        22.2  52.2  63.9  30       0
 7 1142-05912 M             8.74      9.28       25.4  57.1  75.1  31.8     1
 8 1142-05914 M             8.72      9.94       30    60.7  78.1  30.7     1
 9 1142-05917 F             8.2       9.01       22.8  52.8  64    30.0     0
10 1142-05920 F             7.67      9.31       24.6  54.9  67.3  30.3     0
# … with 113 more rows
…
